<Response [200]>
fail
{u'alert_sent_success': True, u'alert_sent_errmsg': u'', u'alerts': {u'resources': [{u'serial_number': u'SZ13410_10-GENOMICS', u'part_number': u'MGISP-960', u'heartbeat_date': u'2019-03-14T09:11:22.093762Z', u'inputs': {u'disk': {u'total': u'10G', u'used': u'1G'}, u'temperature': {u'motor_temperature': u'90', u'motherboard_temperature': u'40', u'liquor_temperature': u'10'}, u'instrument_status': u'running'}, u'last_alert_date': u'2019-03-14T09:09:21.983011Z'}]}}
{u'lot_number': u'', u'resource_name': u'', u'external_id': u'', u'date_modified': u'2019-03-14T09:11:34.591185Z', u'expiration_date': None, u'resource_status': u'Available', u'parent_id': None, u'part_number': u'MGISP-960', u'user': 1, u'serial_number': u'SZ13410_10-GENOMICS_2', u'date_added': u'2019-03-14T09:11:34.591136Z', u'user_name': u'zlims_be', u'id': 46, u'resource_type': 34, u'metadata': {u'control_software_version': u'1.0.0', u'lab': u'BGI SZ Auto Lab', u'other metadata': u'', u'mapped_instrument_status': u'Idle', u'location': u'Shenzhen', u'instrument_status': u'Idle'}}
<Response [200]>
fail
{}
{u'error_type': u'CLIENT_ERROR', u'error_id': u'f3a6e813-3bad-4097-a132-38af561d10ea', u'error_message': {u'detail': [u'Serial_number=SZ13410_10-GENOMICS_3 already exists']}, u'error_code': u'Bad Request'}
device_register test fail!
{}
device_heartbeat test pass!
